[
    {
        "title": "Aktualisierung erforderlich",
        "body": "Wir haben wieder fleißig an foodsharing gearbeitet, wodurch ein Update der App erforderlich ist. Bitte drücke auf Aktualisieren um die neue Version aus dem Play Store herunterzuladen.",
        "conditions": [
            {
                "type": "LOCALE",
                "value": "de"
            },
            {
                "type": "VERSION_CODE",
                "value": "<799"
            },
            {
                "type": "BUILD_TYPE",
                "value": "release"
            }
        ],
        "negativeAction": {
            "title": "Abbrechen"
        },
        "positiveAction": {
            "title": "Aktualisieren",
            "url": "https://play.google.com/store/apps/details?id=de.foodsharing.app"
        }
    },
    {
        "title": "Update required",
        "body": "Due to an update on the server, this version of the app is not compatible anymore. Please update the app via the play store.",
        "conditions": [
            {
                "type": "VERSION_CODE",
                "value": "<799"
            },
            {
                "type": "BUILD_TYPE",
                "value": "release"
            }
        ],
        "negativeAction": {
            "title": "Cancel"
        },
        "positiveAction": {
            "title": "Update",
            "url": "https://play.google.com/store/apps/details?id=de.foodsharing.app"
        }
    }
]
